<?xml version="1.0" encoding="utf-8"?>
<!DOCTYPE svg PUBLIC "-//W3C//DTD SVG 1.1//EN" "http://www.w3.org/Graphics/SVG/1.1/DTD/svg11.dtd">
<svg version="1.1"
     xmlns="http://www.w3.org/2000/svg" 
     xmlns:xlink="http://www.w3.org/1999/xlink" 
     x="0px" y="0px" width="224px" height="31px" 
     viewBox="0 0 173 24" enable-background="new 0 0 173 24" xml:space="preserve">
  <rect fill="#AA9C8F" width="173" height="34"/>

  <path fill="#FFFFFF" d="M4.433,11.047c0,1.118,0.423,1.446,1.677,1.446h0.579v0.75H0.135v-0.75h0.29c1.061,0,1.35-0.234,1.35-1.099
                          V3.125c0-0.886-0.29-1.116-1.35-1.116H0V1.256c0.752-0.041,1.793-0.155,3.125-0.212c1.271-0.06,2.522-0.097,3.062-0.097
                          c3.722,0,5.301,1.794,5.301,3.778c0,2.234-1.888,3.664-4.856,3.664c-0.694,0-1.388-0.06-2.198-0.196V11.047z M4.433,7.403
                          C4.837,7.5,5.262,7.541,5.821,7.541c1.794,0,2.795-1.044,2.795-2.932c0-1.774-1.041-2.814-2.815-2.814
                          c-0.462,0-0.904,0.039-1.368,0.133V7.403z"/>
  <path fill="#FFFFFF" d="M11.625,1.197c1.047-0.058,2.248-0.095,3.119-0.152c0.967-0.06,1.704-0.097,2.653-0.097
                          c3.873,0,5.692,0.482,7.126,1.917c1.026,1.026,1.626,2.42,1.626,4.067c0,1.763-0.775,3.31-1.801,4.334
                          c-0.988,0.991-2.595,1.978-6.565,1.978h-6.159v-0.756c1.277,0,1.803-0.25,1.803-1.353V3.66c0-1.378-0.31-1.706-1.803-1.706V1.197z
                          M16.1,10.997c0,1.298,0.193,1.471,1.685,1.471c4.357,0,5.482-2.981,5.482-5.287c0-1.608-0.563-3.06-1.434-3.93
                          c-0.949-0.949-2.245-1.396-4.221-1.396c-0.525,0-0.949,0.019-1.511,0.097V10.997z"/>
  <path fill="#FFFFFF" d="M26.005,1.138h6.191v0.756h-0.331c-1.051,0-1.479,0.449-1.479,1.458v7.709c0,0.953,0.331,1.422,1.519,1.422
                          h0.291v0.759h-6.191v-0.759h0.276c1.031,0,1.42-0.488,1.42-1.343V3.353c0-1.009-0.351-1.458-1.441-1.458h-0.254V1.138z"/>
  <path fill="#FFFFFF" d="M41.318,10.921c0,1.182,0.37,1.566,1.918,1.566v0.756h-4.688v-0.756h0.116c1.181,0,1.472-0.426,1.472-1.222
                          V2.319c-0.425-0.291-0.949-0.429-1.547-0.429V1.138h3.989l7.903,8.251v-5.85c0-1.397-0.29-1.649-1.841-1.649h-0.192V1.138h4.997
                          v0.752h-0.193c-1.2,0-1.588,0.252-1.588,0.988v10.365H50.6l-9.281-9.704V10.921z"/>
  <path fill="#FFFFFF" d="M58.5,13.243h-5.279v-0.676h0.233c0.865,0,1.183-0.38,1.183-1.478V7.035c0-0.55-0.126-0.697-0.718-0.908
                          l-0.697-0.253V5.366l3.613-1.204h0.379v7.074c0,0.867,0.358,1.331,1.287,1.331V13.243z"/>
  <path fill="#FFFFFF" d="M57.271,2.334c0,0.726-0.686,1.231-1.426,1.231c-0.833,0-1.448-0.525-1.448-1.231
                          c0-0.651,0.687-1.231,1.448-1.231C56.674,1.103,57.271,1.647,57.271,2.334z"/>
  <path fill="#FFFFFF" d="M69.454,11.322c0,1.035,0.379,1.246,1.205,1.246v0.676h-4.984v-0.676c0.867-0.064,1.205-0.653,1.205-2.386
                          V8.344c0-1.691-0.464-2.344-1.31-2.344c-0.654,0-1.353,0.315-2.238,0.932v4.285c0,0.949,0.401,1.351,1.247,1.351h0.188v0.676h-5.343
                          v-0.676h0.126c0.888,0,1.205-0.38,1.205-1.478V6.971c0-0.464-0.254-0.736-0.994-0.948l-0.442-0.126V5.39l3.61-1.227h0.402v1.88
                          c1.542-1.014,2.893-1.646,3.906-1.646c1.543,0,2.217,1.098,2.217,3.633V11.322z"/>
  <path fill="#FFFFFF" d="M87.584,11.322c0,1.035,0.38,1.246,1.204,1.246v0.676h-4.983v-0.676c0.865-0.064,1.202-0.653,1.202-2.386
                          V8.344C85.008,6.653,84.542,6,83.699,6c-0.655,0-1.351,0.315-2.237,0.932v4.285c0,0.949,0.4,1.351,1.244,1.351h0.19v0.676h-5.344
                          v-0.676h0.127c0.887,0,1.205-0.38,1.205-1.478V2.81c0-0.466-0.254-0.737-0.993-0.95l-0.443-0.126V1.228L81.06,0h0.402v6.042
                          c1.542-1.014,2.893-1.646,3.906-1.646c1.541,0,2.217,1.098,2.217,3.633V11.322z"/>
  <path fill="#FFFFFF" d="M74.231,11.077c0,0.77,0.355,1.107,0.959,1.107c0.501,0,0.981-0.314,1.585-1.042l0.293,0.581
                          c-0.627,1.13-1.878,1.9-3.025,1.9c-1.418,0-2.358-0.793-2.358-2.588V6.027H70.58V5.484c1.254-0.52,2.671-2.043,3.047-3.212h0.605
                          v2.606h2.735l-0.314,1.148h-2.421V11.077z"/>
  <path fill="#FFFFFF" d="M101.816,12.484c1.027,0,1.457-0.45,1.457-1.5V7.522h-6.425v3.503c0,1.031,0.411,1.459,1.499,1.459h0.293
                          v0.759h-6.247v-0.759h0.329c0.992,0,1.44-0.45,1.44-1.422V3.315c0-0.972-0.429-1.421-1.46-1.421h-0.31V1.138h6.247v0.756h-0.273
                          c-1.012,0-1.519,0.331-1.519,1.421v3.056h6.425V3.375c0-1.091-0.43-1.48-1.557-1.48h-0.176V1.138h6.23v0.756h-0.352
                          c-0.992,0-1.461,0.37-1.461,1.421v7.71c0,1.009,0.371,1.459,1.5,1.459h0.312v0.759h-6.23v-0.759H101.816z"/>


		<path fill="#FFFFFF" d="M112.929,4.163c-3.02,0-5.301,2.006-5.301,4.666c0,2.58,2.07,4.415,4.982,4.415
                              c3.02,0,5.301-2.003,5.301-4.685C117.912,6,115.822,4.163,112.929,4.163z M114.888,10.145c-0.314,1.639-1.176,2.44-2.379,2.209
                              c-1.99-0.383-2.172-3.452-1.84-5.194c0.301-1.556,1.18-2.331,2.404-2.097C114.65,5.366,115.402,7.49,114.888,10.145z"/>






  <path fill="#FFFFFF" d="M125.615,11.554c-1.918,1.225-2.979,1.689-3.779,1.689c-1.543,0-2.301-1.371-2.301-2.893V6.822
                          c0-0.822-0.086-1.012-0.443-1.181l-0.443-0.209V4.944l3.043-0.782h0.422v5.386c0,1.267,0.422,2.09,1.371,2.09
                          c0.508,0,1.248-0.295,2.131-0.867v-3.82c0-0.825-0.125-1.036-0.758-1.228l-0.973-0.292V4.944l3.885-0.782h0.422v6.464
                          c0,1.051,0.109,1.265,0.615,1.265c0.189,0,0.357-0.019,0.633-0.126v0.655l-3.422,0.822h-0.402V11.554z"/>
  <path fill="#FFFFFF" d="M130.17,10.514h0.678c0.359,1.186,1.291,1.82,2.201,1.82c0.596,0,1.102-0.442,1.102-0.975
                          c0-1.459-3.98-1.969-3.98-4.526c0-1.611,1.336-2.689,3.324-2.689c0.801,0,1.48,0.126,2.371,0.443l0.043,2.266h-0.68
                          c-0.381-1.164-1.078-1.8-1.988-1.8c-0.553,0-0.975,0.337-0.975,0.805c0,1.732,4.17,1.8,4.17,4.698c0,1.566-1.121,2.667-2.75,2.667
                          c-1.463,0-1.949-0.296-2.244-0.296c-0.127,0-0.254,0.085-0.426,0.276h-0.611L130.17,10.514z"/>
  <path fill="#FFFFFF" d="M145.769,10.561c-1.182,1.669-2.896,2.682-4.52,2.682c-2.305,0-3.865-1.772-3.865-4.327
                          c0-2.789,1.879-4.753,4.518-4.753c1.121,0,2.008,0.36,2.66,1.016c1.244,1.243,1.242,2.166,1.395,2.806v0.613h-5.85
                          c0.168,1.753,1.35,3.081,2.598,3.081c0.783,0,1.541-0.438,2.578-1.519L145.769,10.561z M143.041,7.775
                          c-0.018-1.628-0.59-2.623-1.5-2.623c-0.863,0-1.645,1.123-1.496,2.623H143.041z"/>
  <path fill="#FFFFFF" d="M41.543,20.32h2.555v3.114h-0.511l-0.186-0.756c-0.399,0.55-1.127,0.909-1.923,0.909
                          c-0.995,0-1.482-0.366-1.782-0.66c-0.893-0.84-0.917-1.837-0.917-2.456c0-1.416,0.86-3.012,2.756-3.012
                          c1.086,0,2.294,0.612,2.464,1.918h-0.763c-0.25-1.012-1.102-1.223-1.741-1.223c-1.048,0-1.907,0.835-1.907,2.361
                          c0,1.181,0.39,2.396,1.937,2.396c0.293,0,0.763-0.029,1.193-0.372c0.511-0.406,0.64-0.926,0.64-1.547h-1.816V20.32z"/>
  <path fill="#FFFFFF" d="M46.104,22.734h2.95v0.7h-3.736v-5.819h0.786V22.734z"/>
  <path fill="#FFFFFF" d="M52.123,23.588c-2.174,0-2.838-1.81-2.838-3.065c0-1.257,0.665-3.063,2.838-3.063
                          c2.173,0,2.836,1.806,2.836,3.063C54.959,21.778,54.295,23.588,52.123,23.588z M52.123,18.155c-1.266,0-2.027,0.998-2.027,2.367
                          c0,1.372,0.762,2.366,2.027,2.366c1.263,0,2.026-0.994,2.026-2.366C54.149,19.153,53.386,18.155,52.123,18.155z"/>
  <path fill="#FFFFFF" d="M55.88,17.615h2.562c1.085,0,1.646,0.67,1.646,1.463c0,0.381-0.14,0.919-0.779,1.218
                          c0.381,0.154,1.052,0.42,1.052,1.42c0,0.931-0.687,1.719-1.976,1.719H55.88V17.615z M56.666,20.076h1.417
                          c0.754,0,1.217-0.226,1.217-0.941c0-0.544-0.333-0.85-1.208-0.85h-1.426V20.076z M56.666,22.76h1.677
                          c0.82,0,1.232-0.413,1.232-1.063c0-0.819-0.721-0.981-1.362-0.981h-1.548V22.76z"/>
  <path fill="#FFFFFF" d="M62.099,21.74l-0.605,1.694h-0.812l2.187-5.819h0.893l2.109,5.819h-0.86l-0.576-1.694H62.099z
                          M64.152,21.041l-0.859-2.563h-0.017l-0.933,2.563H64.152z"/>
  <path fill="#FFFFFF" d="M67.381,22.734h2.953v0.7h-3.74v-5.819h0.787V22.734z"/>
  <path fill="#FFFFFF" d="M74.146,22.734h2.95v0.7h-3.733v-5.819h0.784V22.734z"/>
  <path fill="#FFFFFF" d="M82.247,23.435h-4.295v-5.819h4.242v0.694h-3.458v1.785h3.187v0.696h-3.187v1.943h3.511V23.435z"/>
  <path fill="#FFFFFF" d="M84.196,21.74l-0.606,1.694h-0.811l2.189-5.819h0.891l2.109,5.819h-0.86L86.53,21.74H84.196z M86.249,21.041
                          l-0.858-2.563h-0.018l-0.932,2.563H86.249z"/>
  <path fill="#FFFFFF" d="M88.732,17.615h2.359c1.516,0,2.449,1.148,2.449,2.826c0,1.306-0.571,2.993-2.482,2.993h-2.326V17.615z
                          M89.517,22.76h1.526c1.022,0,1.686-0.8,1.686-2.27c0-1.468-0.672-2.205-1.741-2.205h-1.47V22.76z"/>
  <path fill="#FFFFFF" d="M98.927,23.435h-4.299v-5.819h4.238v0.694h-3.451v1.785h3.188v0.696h-3.188v1.943h3.512V23.435z"/>
  <path fill="#FFFFFF" d="M100.841,23.435h-0.785v-5.819h2.691c0.957,0,1.912,0.329,1.912,1.562c0,0.857-0.436,1.176-0.809,1.396
                          c0.33,0.138,0.664,0.283,0.697,1.094l0.047,1.054c0.008,0.324,0.051,0.446,0.289,0.583v0.132h-0.959
                          c-0.119-0.358-0.141-1.244-0.141-1.463c0-0.474-0.098-1.037-1.037-1.037h-1.906V23.435z M100.841,20.264h1.826
                          c0.574,0,1.184-0.148,1.184-1.004c0-0.899-0.656-0.975-1.047-0.975h-1.963V20.264z"/>
  <path fill="#FFFFFF" d="M109.244,19.316c-0.037-0.9-0.787-1.188-1.443-1.188c-0.494,0-1.328,0.144-1.328,1.025
                          c0,0.493,0.35,0.656,0.689,0.737l1.66,0.382c0.756,0.178,1.322,0.631,1.322,1.557c0,1.378-1.279,1.759-2.277,1.759
                          c-1.078,0-1.5-0.325-1.758-0.56c-0.496-0.444-0.596-0.932-0.596-1.475h0.74c0,1.053,0.859,1.359,1.604,1.359
                          c0.57,0,1.525-0.146,1.525-0.98c0-0.605-0.283-0.805-1.238-1.029l-1.193-0.274c-0.383-0.089-1.24-0.356-1.24-1.369
                          c0-0.909,0.59-1.8,2.002-1.8c2.035,0,2.238,1.212,2.271,1.856H109.244z"/>
  <path fill="#FFFFFF" d="M114.982,17.615h0.787v5.819h-0.787v-2.719h-3.041v2.719h-0.789v-5.819h0.789v2.405h3.041V17.615z"/>
  <path fill="#FFFFFF" d="M117.91,23.435h-0.785v-5.819h0.785V23.435z"/>
  <path fill="#FFFFFF" d="M120.125,23.435h-0.787v-5.819h2.619c1.078,0,1.725,0.694,1.725,1.636c0,0.809-0.461,1.726-1.725,1.726
                          h-1.832V23.435z M120.125,20.303h1.566c0.703,0,1.18-0.259,1.18-1.043c0-0.739-0.502-0.975-1.15-0.975h-1.596V20.303z"/>
  <path fill="#FFFFFF" d="M130.431,19.316c-0.037-0.9-0.785-1.188-1.441-1.188c-0.494,0-1.328,0.144-1.328,1.025
                          c0,0.493,0.348,0.656,0.689,0.737l1.658,0.382c0.756,0.178,1.322,0.631,1.322,1.557c0,1.378-1.279,1.759-2.277,1.759
                          c-1.078,0-1.5-0.325-1.76-0.56c-0.494-0.444-0.592-0.932-0.592-1.475h0.738c0,1.053,0.859,1.359,1.604,1.359
                          c0.57,0,1.525-0.146,1.525-0.98c0-0.605-0.283-0.805-1.238-1.029l-1.193-0.274c-0.381-0.089-1.24-0.356-1.24-1.369
                          c0-0.909,0.59-1.8,2.004-1.8c2.035,0,2.238,1.212,2.27,1.856H130.431z"/>
  <path fill="#FFFFFF" d="M134.871,23.588c-2.174,0-2.838-1.81-2.838-3.065c0-1.257,0.664-3.063,2.838-3.063s2.836,1.806,2.836,3.063
                          C137.707,21.778,137.045,23.588,134.871,23.588z M134.871,18.155c-1.266,0-2.027,0.998-2.027,2.367c0,1.372,0.762,2.366,2.027,2.366
                          c1.264,0,2.027-0.994,2.027-2.366C136.898,19.153,136.134,18.155,134.871,18.155z"/>
  <path fill="#FFFFFF" d="M139.431,22.734h2.949v0.7h-3.736v-5.819h0.787V22.734z"/>
  <path fill="#FFFFFF" d="M147.759,17.615v3.775c0,1.193-0.748,2.197-2.344,2.197c-1.563,0-2.236-1.004-2.236-2.091v-3.882h0.785
                          v3.661c0,1.265,0.77,1.612,1.477,1.612c0.721,0,1.533-0.329,1.533-1.595v-3.679H147.759z"/>
  <path fill="#FFFFFF" d="M148.507,17.615h4.727v0.694h-1.971v5.125h-0.783V18.31h-1.973V17.615z"/>
  <path fill="#FFFFFF" d="M154.873,23.435h-0.783v-5.819h0.783V23.435z"/>
  <path fill="#FFFFFF" d="M158.761,23.588c-2.174,0-2.838-1.81-2.838-3.065c0-1.257,0.664-3.063,2.838-3.063
                          c2.172,0,2.836,1.806,2.836,3.063C161.597,21.778,160.933,23.588,158.761,23.588z M158.761,18.155c-1.266,0-2.025,0.998-2.025,2.367
                          c0,1.372,0.76,2.366,2.025,2.366c1.264,0,2.027-0.994,2.027-2.366C160.789,19.153,160.025,18.155,158.761,18.155z"/>
  <path fill="#FFFFFF" d="M166.394,17.615h0.76v5.819h-0.883l-2.961-4.703h-0.014v4.703h-0.764v-5.819h0.934l2.91,4.701h0.018V17.615z
                          "/>
  <path fill="#FFFFFF" d="M171.902,19.316c-0.041-0.9-0.787-1.188-1.443-1.188c-0.494,0-1.33,0.144-1.33,1.025
                          c0,0.493,0.348,0.656,0.688,0.737l1.662,0.382c0.758,0.178,1.322,0.631,1.322,1.557c0,1.378-1.281,1.759-2.275,1.759
                          c-1.084,0-1.5-0.325-1.76-0.56c-0.496-0.444-0.594-0.932-0.594-1.475h0.736c0,1.053,0.861,1.359,1.607,1.359
                          c0.566,0,1.523-0.146,1.523-0.98c0-0.605-0.281-0.805-1.242-1.029l-1.188-0.274c-0.383-0.089-1.244-0.356-1.244-1.369
                          c0-0.909,0.594-1.8,2.004-1.8c2.035,0,2.236,1.212,2.27,1.856H171.902z"/>

</svg>
