{
    "id": "projects.internal.kfapV2.group",
    "shared": {
        "reportNameLabel": "",
        "reportName": "ASSESSMENT OF LEADERSHIP POTENTIAL",
        "reportTitle": "Individual Report",
        "reportTitleGroupSlate": "Talent Grid",
        "confidential": "Personal and Confidential",
        "confidentialWPeriod": "Personal and Confidential.",
        "nameLabel": "NAME",
        "clientLabel": "CLIENT",
        "targetLabel": "TARGET",
        "groupLabel": "GROUP",
        "reportDateLabel": "DATE",
        "copyright": "© Korn Ferry 2015. All rights reserved.",
        "providedBy": "Provided by Korn Ferry.",
        "createDate": "Created {todaysDate}.",
        "endpageHeader": "About Korn Ferry",
        "endpageP1": "At Korn Ferry, we design, build, attract and ignite talent. Since we were founded, clients have trusted us to help recruit world-class leadership. Today, we are a single source for leadership and talent consulting services to empower businesses and leaders to reach their goals. Our solutions range from executive recruitment and leadership development programmes to enterprise learning, succession planning and recruitment process outsourcing (RPO).",
        "endpageP2": "Visit www.kornferry.com for more information on Korn Ferry and www.kornferryinstitute.com for thought leadership, intellectual property and research.",
        "endpageP3": "Portions of this report may contain copyrighted content owned by NCS Pearson, Inc. and be used with permission. Copyright © 2010 NCS Pearson, Inc. All rights reserved."
    },
    "level": {
        "labelCase1": "Chief Executive Officer/Top Organisational Executive",
        "labelCase2": "Top Business or Organisational Group Executive",
        "labelCase3": "Senior/Top Functional Executive",
        "labelCase4": "Business or Organisational Unit/Division Leader",
        "labelCase5": "Functional Leader",
        "labelCase6": "Mid-Level Leader",
        "labelCase7": "First Level Leader",
        "labelCase8": "Team Leader",
        "labelCase9": "Individual Contributor/Professional"
    },
    "aboutSection": {
        "title": "About this Report",
        "p1": "This report orders a group of leaders according to their potential for a smooth, effective transition to a role at the indicated leadership level. Potential is assessed based on seven signposts. Colour-coded symbols are used to indicate a leader’s potential in each signpost.",
        "strongIndicator": "Indicates the leader is strong in a signpost.",
        "developmentIndicator": "Indicates the leader needs development in a signpost.",
        "wellAboveAverageIndicator": "Results are well above average.",
        "atOrAboveAverageIndicator": "Results are at or above average.",
        "belowAverageIndicator": "Results are below average.",
        "wellbelowAverageIndicator": "Results are well below average.",
        "derailerIndicator": "Indicates potential derailer.",
        "noProblemSolvingText": "This group of participants contains some individuals who completed the Problem solving measure and some who did not. As a result, Problem solving results are not shown for these individuals and sorting is based on six signposts.",
        "mixedV1andV2Text": "This version of the Korn Ferry Assessment of Leadership Potential uses somewhat different measures of Advancement drive and Role preferences from those of previous versions. Some persons in this Talent Grid were assessed using previous measures. While they are similar measures, they may not be directly comparable."
    },
    "detailedResultsSection": {
        "title": "Detailed Results"
    },
    "definitionsSection": {
        "title": "Definitions",
        "driversShortText": "Drivers summarise a leader’s Advancement drive, Career planning and Role preferences. <b>Advancement drive</b> refers to the leader’s ambition and passion to grow, develop and progress into higher-level leadership roles. <b>Career planning</b> reflects how narrowly or broadly the leader has targeted his/her career goals and plans. <b>Role preferences</b> indicates the degree to which the leader will enjoy and be engaged by work where he/she is responsible for outcomes that are largely outside of his/her direct control.",
        "experienceShortText": "Experience summarises a leader’s experience to date. <b>Core experience</b> reflects what the leader has learned in the course of his/her day-to-day leadership career. <b>Perspective</b> reflects the diversity of a leader’s experience across organisations, industries, functional areas and countries. <b>Key challenges</b> indicates the leader’s experience with a number of seminal developmental challenges.",
        "selfAwareShortText": "Awareness summarises the extent to which the leader is aware of his/her strengths and development needs <b>(Self-awareness)</b> and the extent to which he/she monitors and is aware of how events impact his/her performance <b>(Situational self-awareness)</b>.",
        "learningAgilityShortText": "Learning agility summarises the extent to which a leader learns from experience and applies that learning to new or novel situations. <b>Mental agility</b> reflects a leader’s tendency to be inquisitive and mentally quick. <b>People agility</b> reflects a leader’s skill in reading others and applying the insights gained in people-related matters. <b>Change agility</b> reflects a leader’s tendency to promote new possibilities and to take ideas from vision to reality. <b>Results agility</b> reflects the propensity to deliver outstanding results in new and tough situations.",
        "leadershipTraitsShortText": "Leadership traits summarise a leader’s underlying behavioural predispositions. <b>Focus</b> reflects the balance between attending to details and keeping an eye on the big picture. <b>Persistence</b> refers to a steadfast pursuit of highly valued long-term goals. <b>Tolerance of ambiguity</b> reflects a leader’s capacity to deal effectively with uncertainty or confusing situations. <b>Assertiveness</b> refers to comfort with taking charge and assuming leadership. <b>Optimism</b> reflects a leader’s tendency to have a positive outlook.",
        "capacityShortText": "Capacity summarises a leader’s speed and skill in detecting underlying patterns or trends in complex, confusing, ambiguous or “noisy” environments (<b>Problem solving</b>).",
        "derailmentShortText": "Derailment risks summarise a leader’s propensity for any of three common derailment risks. <b>Volatile</b> indicates a tendency towards outbursts. <b>Micromanaging</b> indicates a tendency towards overcontrolling the work of direct reports. <b>Closed</b> indicates a tendency to be overly focused on the status quo."
    },
    "version": {
        "versionNumber": "20120150620"
    },
    "labels": {
        "interestLabel": "Interest",
        "driversLabel": "Drivers",
        "experienceLabel": "Experience",
        "selfAwarenessLabel": "Awareness",
        "learningAgilityLabel": "Learning agility",
        "leadershipTraitsLabel": "Leadership traits",
        "capacityLabel": "Capacity",
        "derailmentRisksLabel": "Derailment risks",
        "needsLabel": "Needs development",
        "strengthLabel": "Strong",
        "incompleteLabel": "Incomplete",
        "wellAboveAverageLabel": "Well above average",
        "atOrAboveAverageLabel": "Above average",
        "belowAverageLabel": "Below average",
        "wellbelowAverageLabel": "Well below average",
        "notAvailableLabel": "Not available",
        "derailerLabel": "Derailment risk",
        "advancementDriveLabel": "Advancement drive",
        "careerPlanningLabel": "Career planning",
        "rolePreferenceLabel": "Role preferences",
        "coreLabel": "Core experience",
        "perspectiveLabel": "Perspective",
        "keyChallengesLabel": "Key challenges",
        "selfLabel": "Self-awareness",
        "situationalLabel": "Situational self-awareness",
        "peopleLabel": "People agility",
        "resultsLabel": "Results agility",
        "mentalLabel": "Mental agility",
        "changeLabel": "Change agility",
        "focusedLabel": "Focus",
        "persistenceLabel": "Persistence",
        "toleranceLabel": "Tolerance of ambiguity",
        "assertivenessLabel": "Assertiveness",
        "optimisticLabel": "Optimism",
        "problemSolveLabel": "Problem solving",
        "volatileLabel": "Volatile",
        "microManageLabel": "Micromanaging",
        "closedLabel": "Closed"
    },
    "sharedContent": {
        "months": {
            "jan": "January",
            "feb": "February",
            "mar": "March",
            "apr": "April",
            "may": "May",
            "jun": "June",
            "jul": "July",
            "aug": "August",
            "sep": "September",
            "oct": "October",
            "nov": "November",
            "dec": "December"
        }
    }
}