{
    "id": "projects.internal.kfapV2.group",
    "shared": {
        "reportNameLabel": "",
        "reportName": "ÉVALUATION DU POTENTIEL EN MATIÈRE DE LEADERSHIP",
        "reportTitle": "Synthèse individuelle",
        "reportTitleGroupSlate": "Tableau de synthèse des personnes évaluées",
        "confidential": "Personnel et confidentiel",
        "confidentialWPeriod": "Personnel et confidentiel.",
        "nameLabel": "NOM",
        "clientLabel": "CLIENT",
        "targetLabel": "POSTE CIBLE",
        "groupLabel": "GROUPE",
        "reportDateLabel": "DATE",
        "copyright": "© Korn Ferry 2015. Tous droits réservés.",
        "providedBy": "Rapport produit par Korn Ferry.",
        "createDate": "Créé le {todaysDate}.",
        "endpageHeader": "À propos de Korn Ferry",
        "endpageP1": "Chez Korn Ferry, nous façonnons, développons, attirons et suscitons le talent professionnel. Depuis notre création, nos clients nous ont fait confiance pour les aider à recruter des dirigeants de classe mondiale. Aujourd'hui, nous proposons l'ensemble des services de conseil en matière de leadership et de gestion des talents, visant à aider les entreprises et les dirigeants à atteindre leurs objectifs. Notre gamme complète de solutions couvre aussi bien le recrutement des dirigeants, les programmes de développement de leadership, que la formation en entreprise, la planification des promotions et des remplacements et l'externalisation du processus de recrutement.",
        "endpageP2": "Rendez-vous sur www.kornferry.com pour plus d’informations sur Korn Ferry, ou sur www.kornferryinstitute.com pour les questions de leadership orienté pensée (thought leadership), de propriété intellectuelle et de recherche.",
        "endpageP3": "Certaines parties de ce rapport peuvent contenir du contenu protégé par un copyright appartenant à NCS Pearson, Inc., avec leur accord. Copyright © 2010 NCS Pearson, Inc. Tous droits réservés."
    },
    "level": {
        "labelCase1": "Directeur général/Cadre dirigeant",
        "labelCase2": "Cadre dirigeant de groupe business ou organisationnel",
        "labelCase3": "Cadre dirigeant fonctionnel",
        "labelCase4": "Manager d’unité business ou organisationnelle/Manager de division",
        "labelCase5": "Manager fonctionnel",
        "labelCase6": "Manager - niveau intermédiaire",
        "labelCase7": "Manager - premier niveau",
        "labelCase8": "Leader d'équipe",
        "labelCase9": "Contributeur individuel/Professionel"
    },
    "aboutSection": {
        "title": "À propos de ce rapport",
        "p1": "Ce rapport a pour but de classer un groupe de leaders en fonction de leur potentiel à réussir une transition fluide et efficace vers un poste au niveau de leadership indiqué (poste cible). Ce potentiel est évalué selon sept indicateurs. Des symboles de couleur sont utilisés pour indiquer le potentiel du leader pour chaque indicateur.",
        "strongIndicator": "Indique que le leader a de fortes compétences pour cet indicateur.",
        "developmentIndicator": "Indique que le leader présente des besoins de développement pour cet indicateur.",
        "wellAboveAverageIndicator": "Les résultats sont bien au-dessus de la moyenne.",
        "atOrAboveAverageIndicator": "Les résultats sont équivalents ou au-dessus de la moyenne.",
        "belowAverageIndicator": "Les résultats sont en dessous de la moyenne.",
        "wellbelowAverageIndicator": "Les résultats sont bien en dessous de la moyenne.",
        "derailerIndicator": "Indique un problème critique pour l’évolution de carrière.",
        "noProblemSolvingText": "Parmi ce groupe de participants, certains ont répondu à l’item Résolution de problèmes, mais d’autres n’y ont pas répondu. Par conséquent, les résultats de l’item Résolution de problèmes ne sont pas affichés pour ces personnes, et le classement est réalisé sur la base des six autres indicateurs.",
        "mixedV1andV2Text": "Cette version de l’Évaluation du potentiel en matière de leadership proposée par Korn Ferry utilise des indicateurs légèrement différents pour la Motivation à progresser et pour les Préférences en matière de poste, par rapport aux versions précédentes. Certaines personnes de ce Tableau de synthèse des personnes évaluées ont été évaluées selon les anciens indicateurs. Bien que ce soient des mesures similaires, elles peuvent ne pas être directement comparables."
    },
    "detailedResultsSection": {
        "title": "Résultats détaillés"
    },
    "definitionsSection": {
        "title": "Définitions",
        "driversShortText": "Les Éléments de motivation regroupent les trois critères suivants : Motivation à progresser, Plan de carrière et Préférences en matière de poste. <b>Motivation à progresser :</b> évalue l’ambition et la volonté du leader à progresser, à se développer et à évoluer vers des postes de leadership de niveau plus élevé. <b>Plan de carrière :</b> indique de quelle manière, détaillée ou vague, le leader a défini ses plans et ses objectifs de carrière. <b>Préférences en matière de poste :</b> indique dans quelle mesure le leader sera susceptible d’apprécier et d’être motivé par un poste pour lequel il sera responsable de résultats qui se trouvent largement en dehors de son contrôle direct.",
        "experienceShortText": "Cet item récapitule l’expérience du leader à ce jour. <b>Expérience de base :</b> indique ce que le leader a appris au quotidien, tout au long de sa carrière de leader. <b>Ouverture :</b> reflète la diversité de l’expérience du leader, en termes d’organisations, de secteurs d’activité, de domaines fonctionnels et de pays. <b>Défis importants :</b> évalue l’expérience du leader en termes d’exposition à des défis nécessitant des efforts de développement significatifs.",
        "selfAwareShortText": "Cet item indique dans quelle mesure le leader est conscient de ses points forts et de ses besoins de développement <b>(Connaissance de soi)</b> et dans quelle mesure il évalue et est conscient de la manière dont les événements affectent ses performances <b>(Compréhension des situations)</b>.",
        "learningAgilityShortText": "Cet item indique dans quelle mesure le leader sait apprendre de ses expériences et appliquer ces apprentissages à des situations nouvelles ou inédites. <b>Vivacité d’esprit :</b> indique si le leader a tendance à faire preuve de curiosité intellectuelle et à être vif d’esprit. <b>Agilité relationnelle :</b> indique la capacité du leader à décrypter les autres et à utiliser ce qu’il a observé dans ses relations aux autres. <b>Adaptation au changement :</b> indique la tendance du leader à promouvoir de nouvelles possibilités et à transformer une vision en réalité. <b>Adaptabilité orientée résultats :</b> indique la faculté à fournir des résultats exceptionnels dans des situations nouvelles et complexes.",
        "leadershipTraitsShortText": "Les caractéristiques de leadership reflètent les prédispositions du leader en termes de comportement. <b>Focalisation :</b> reflète l’équilibre entre la gestion des détails et la vision d’ensemble. <b>Persévérance :</b> indique si le leader poursuit de manière constante des objectifs à long terme qui lui tiennent à cœur. <b>Tolérance à l’ambiguïté :</b> reflète la capacité du leader à gérer efficacement l’incertitude ou des situations déroutantes. <b>Assertivité :</b> évalue si le candidat est à l’aise pour prendre les choses en main et pour assumer son leadership. <b>Optimisme :</b> indique si le leader a tendance à avoir un point de vue positif.",
        "capacityShortText": "Cet item évalue les compétences et la rapidité du leader pour identifier les tendances ou les schémas sous-jacents dans des environnements complexes, déroutants, ambigus ou perturbés par des informations parasites <b>(Résolution de problèmes)</b>.",
        "derailmentShortText": "Cet item indique si le leader présente des risques pour les trois principaux facteurs d’échec professionnel. <b>Instabilité :</b> indique une tendance à réagir de manière exagérée, impulsive. <b>Micromanagement :</b> indique une tendance à trop contrôler le travail de ses collaborateurs directs. <b>Esprit fermé :</b> indique une tendance à être trop attaché au statu quo."
    },
    "version": {
        "versionNumber": "20120150620"
    },
    "labels": {
        "interestLabel": "Interest",
        "driversLabel": "Éléments de motivation",
        "experienceLabel": "Expérience",
        "selfAwarenessLabel": "Conscience",
        "learningAgilityLabel": "Facilité d’apprentissage",
        "leadershipTraitsLabel": "Caractéristiques",
        "capacityLabel": "Aptitude",
        "derailmentRisksLabel": "Risques critiques",
        "needsLabel": "À développer",
        "strengthLabel": "Compétence solide",
        "incompleteLabel": "Incomplet",
        "wellAboveAverageLabel": "Bien au-dessus de la moyenne",
        "atOrAboveAverageLabel": "Au-dessus de la moyenne",
        "belowAverageLabel": "En dessous de la moyenne",
        "wellbelowAverageLabel": "Bien en dessous de la moyenne",
        "notAvailableLabel": "Non disponible",
        "derailerLabel": "Risque critique",
        "advancementDriveLabel": "Motivation à progresser",
        "careerPlanningLabel": "Plan de carrière",
        "rolePreferenceLabel": "Préférences en matière de poste",
        "coreLabel": "Expérience de base",
        "perspectiveLabel": "Ouverture",
        "keyChallengesLabel": "Défis importants",
        "selfLabel": "Connaissance de soi",
        "situationalLabel": "Compréhension des situations",
        "peopleLabel": "Agilité relationnelle",
        "resultsLabel": "Adaptabilité orientée résultats",
        "mentalLabel": "Vivacité d’esprit",
        "changeLabel": "Adaptation au changement",
        "focusedLabel": "Concentration",
        "persistenceLabel": "Persévérance",
        "toleranceLabel": "Tolérance à l’ambiguïté",
        "assertivenessLabel": "Assertivité",
        "optimisticLabel": "Optimisme",
        "problemSolveLabel": "Résolution de problèmes",
        "volatileLabel": "Instabilité",
        "microManageLabel": "Micromanagement",
        "closedLabel": "Esprit fermé"
    },
    "sharedContent": {
        "months": {
            "jan": "Janvier",
            "feb": "Février",
            "mar": "Mars",
            "apr": "Avril",
            "may": "Mai",
            "jun": "Juin",
            "jul": "Juillet",
            "aug": "Août",
            "sep": "Septembre",
            "oct": "Octobre",
            "nov": "Novembre",
            "dec": "Decembre"
        }
    }
}