{
    "id": "projects.internal.kfapV2.group",
    "shared": {
        "reportNameLabel": "",
        "reportName": "AVALIAÇÃO DO POTENCIAL DE LIDERANÇA",
        "reportTitle": "Relatório individual",
        "reportTitleGroupSlate": "Matriz de Talentos",
        "confidential": "Pessoal e confidencial",
        "confidentialWPeriod": "Pessoal e confidencial.",
        "nameLabel": "NOME",
        "clientLabel": "CLIENTE",
        "targetLabel": "ALVO",
        "groupLabel": "GRUPO",
        "reportDateLabel": "DATA",
        "copyright": "© Korn Ferry 2015. Todos os direitos reservados.",
        "providedBy": "Fornecido pela Korn Ferry.",
        "createDate": "Criado em {todaysDate}",
        "endpageHeader": "Sobre a Korn Ferry",
        "endpageP1": "Na Korn Ferry, nós desenhamos, desenvolvemos, atraímos e aprimoramos talentos. Desde o princípio, clientes confiaram na ajuda de nossa empresa para recrutar lideranças de classe mundial. Hoje, somos uma única fonte para serviços de consultoria de liderança e talentos para capacitar os negócios e os líderes a atingirem suas metas. Nossa gama de soluções vai de recrutamento executivo e programas de desenvolvimento de liderança a programas de aprendizagem, planejamento de sucessão e terceirização do processo de recrutamento (RPO).",
        "endpageP2": "Visite www.kornferry.com para obter mais informações sobre a Korn Ferry, e www.kornferryinstitute.com para saber mais sobre liderança inovadora, propriedade intelectual e pesquisa.",
        "endpageP3": "Partes deste relatório podem conter conteúdo protegido por direitos de propriedade da NCS Pearson, Inc. e devem ser usadas com permissão. Copyright © 2010 NCS Pearson, Inc. Todos os direitos reservados."
    },
    "level": {
        "labelCase1": "CEO/Alto executivo organizacional",
        "labelCase2": "Alto executivo de grupo organizacional ou empresarial",
        "labelCase3": "Executivo funcional sênior/superior",
        "labelCase4": "Líder de unidade/divisão de negócio ou organizacional",
        "labelCase5": "Líder funcional",
        "labelCase6": "Líder de nível intermediário",
        "labelCase7": "Líder de linha de frente",
        "labelCase8": "Líder de equipe",
        "labelCase9": "Colaborador individual/profissional"
    },
    "aboutSection": {
        "title": "Sobre este relatório",
        "p1": "Este relatório classifica um grupo de líderes de acordo com seu potencial de transição eficaz e suave para uma função no nível indicado de liderança. O potencial é avaliado com base em sete indicadores. Os símbolos coloridos são utilizados para sinalizar o potencial de um líder em cada indicador.",
        "strongIndicator": "Indica que o líder é forte em um indicador.",
        "developmentIndicator": "Indica que o líder precisa de desenvolvimento em um indicador.",
        "wellAboveAverageIndicator": "Os resultados estão bem acima da média.",
        "atOrAboveAverageIndicator": "Os resultados estão na média ou acima dela.",
        "belowAverageIndicator": "Os resultados estão abaixo da média.",
        "wellbelowAverageIndicator": "Os resultados estão bem abaixo da média.",
        "derailerIndicator": "Indica possível fator de descarrilamento.",
        "noProblemSolvingText": "Este grupo de participantes contém alguns indivíduos que completaram a avaliação Solução de problemas e alguns que não a completaram. Como resultado, os resultados de Solução de problemas não serão exibidos para esses indivíduos, e a classificação terá como base seis indicadores.",
        "mixedV1andV2Text": "Esta versão da Avaliação de Potencial de Liderança da Korn Ferry utiliza avaliações um pouco diferentes para Motivador de desenvolvimento e Preferências de função daquelas de versões anteriores. Algumas pessoas nesta matriz de talentos foram avaliadas usando avaliações anteriores. Embora sejam avaliações semelhantes, elas podem não ser diretamente comparáveis."
    },
    "detailedResultsSection": {
        "title": "Resultados detalhados"
    },
    "definitionsSection": {
        "title": "Definições",
        "driversShortText": "Motivadores incluem o Motivador de desenvolvimento, o Planejamento de carreira e as Preferências de função de um líder. <b>Motivador de desenvolvimento</b> refere-se à ambição e à paixão do líder em crescer, desenvolver e progredir em funções de liderança de nível mais alto. <b>Planejamento de carreira</b> reflete o quanto o líder afunilou ou ampliou suas metas e planos de carreira. <b>Preferências de função</b> indicam o grau de satisfação do líder e o quanto se envolverá com o trabalho quando for responsável pelos resultados que estão, em grande parte, fora de seu controle direto.",
        "experienceShortText": "Experiência indica a experiência de um líder até hoje. <b>Experiência principal</b> reflete o que o líder aprendeu ao longo de sua carreira de liderança diária. <b>Perspectiva</b> reflete a diversidade da experiência de um líder entre empresas, indústrias, áreas funcionais e países. <b>Desafios chave</b> indicam a experiência do líder com uma série de desafios de desenvolvimento seminais.",
        "selfAwareShortText": "Consciência indica o quanto o líder está consciente de seus pontos fortes e necessidades de desenvolvimento <b>(autoconhecimento)</b> e o quanto ele acompanha e está consciente de como os eventos impactam seu desempenho <b>(autoconhecimento situacional)</b>.",
        "learningAgilityShortText": "Rapidez de aprendizado indica o quanto um líder aprende com a experiência e aplica esse aprendizado a situações novas ou inovadoras. <b>Agilidade mental</b> reflete a tendência de um líder em ser curioso e mentalmente rápido. <b>Agilidade com pessoas</b> reflete a habilidade de um líder em ler os outros e aplicar as informações obtidas aos assuntos relacionados às pessoas. <b>Agilidade para a mudança</b> reflete a tendência de um líder em promover novas possibilidades e tornar ideias de visão em realidade. <b>Agilidade de resultados</b> reflete a propensão para entregar resultados excepcionais em situações novas e difíceis.",
        "leadershipTraitsShortText": "Os traços de liderança indicam predisposições comportamentais básicas do líder. <b>Foco</b> reflete o equilíbrio entre perceber os detalhes e estar atento ao todo. <b>Persistência</b> refere-se a uma busca constante de metas de alto valor em longo prazo. <b>Tolerância à ambiguidade</b> reflete a capacidade de um líder para trabalhar eficazmente com situações de incerteza ou confusas. <b>Assertividade</b> refere-se ao conforto em assumir responsabilidade e liderança. <b>Otimismo</b> reflete a tendência de um líder de possuir uma perspectiva positiva.",
        "capacityShortText": "A capacidade indica a rapidez e a habilidade de um líder em detectar padrões ou tendências subjacentes em ambientes complexos, confusos, ambíguos ou \"ruidosos\" <b>(Solução de problemas)</b>.",
        "derailmentShortText": "Riscos de descarrilamento referem-se à propensão de um líder para qualquer um dos três riscos comuns de descarrilamento. <b>Volátil</b> indica uma tendência a \"explosões\". <b>Microgerenciamento</b> indica uma tendência de controlar demais o trabalho dos subordinados. <b>Fechado</b> indica uma tendência a ser excessivamente focado no <i>status quo</i>."
    },
    "version": {
        "versionNumber": "20120150620"
    },
    "labels": {
        "interestLabel": "Interesse",
        "driversLabel": "Motivadores",
        "experienceLabel": "Experiência",
        "selfAwarenessLabel": "Consciência",
        "learningAgilityLabel": "Rapidez de aprendizado",
        "leadershipTraitsLabel": "Traços de liderança",
        "capacityLabel": "Capacidade",
        "derailmentRisksLabel": "Riscos de descarrilam.",
        "needsLabel": "Precisa de desenvolvimento",
        "strengthLabel": "Forte",
        "incompleteLabel": "Incompleto",
        "wellAboveAverageLabel": "Bem acima da média",
        "atOrAboveAverageLabel": "Acima da média",
        "belowAverageLabel": "Abaixo da média",
        "wellbelowAverageLabel": "Bem abaixo da média",
        "notAvailableLabel": "Não disponível",
        "derailerLabel": "Risco de descarrilamento",
        "advancementDriveLabel": "Motivador de desenvolvimento",
        "careerPlanningLabel": "Planejamento de carreira",
        "rolePreferenceLabel": "Preferências de função",
        "coreLabel": "Experiência principal",
        "perspectiveLabel": "Perspectiva",
        "keyChallengesLabel": "Desafios chave",
        "selfLabel": "Autoconhecimento",
        "situationalLabel": "Autoconhecimento situacional",
        "peopleLabel": "Agilidade com pessoas",
        "resultsLabel": "Agilidade de resultados",
        "mentalLabel": "Agilidade mental",
        "changeLabel": "Agilidade para a mudança",
        "focusedLabel": "Foco",
        "persistenceLabel": "Persistência",
        "toleranceLabel": "Tolerância à ambiguidade",
        "assertivenessLabel": "Assertividade",
        "optimisticLabel": "Otimismo",
        "problemSolveLabel": "Solução de problemas",
        "volatileLabel": "Volátil",
        "microManageLabel": "Microgerenciamento",
        "closedLabel": "Fechado"
    },
    "sharedContent": {
        "months": {
            "jan": "janeiro",
            "feb": "fevereiro",
            "mar": "março",
            "apr": "abril",
            "may": "maio",
            "jun": "junho",
            "jul": "julho",
            "aug": "agosto",
            "sep": "setembro",
            "oct": "outubro",
            "nov": "novembro",
            "dec": "dezembro"
        }
    }
}