<?xml version="1.0" encoding="utf-8"?>
<!DOCTYPE svg PUBLIC "-//W3C//DTD SVG 1.1//EN" "http://www.w3.org/Graphics/SVG/1.1/DTD/svg11.dtd">
<svg version="1.1" xmlns="http://www.w3.org/2000/svg" xmlns:xlink="http://www.w3.org/1999/xlink" 
     x="0px" y="0px" width="40px" height="40px" 
     viewBox="0 0 30 30" enable-background="new 0 0 30 30" xml:space="preserve">
  <g id="artwork">
    <g>
		<polygon fill="#CDC9C5" points="6.682,29.116 15,16.56 23.318,29.116 "/>
		<path fill="#FFFFFF" d="M15,16.831l8.04,12.135H6.96L15,16.831 M15,16.287L6.402,29.267h17.195L15,16.287"/>
		<path fill="#FFFFFF" d="M14.052,1.305l0.629,14.543L1.044,10.756L14.052,1.305 M14.327,0.733L0.415,10.842L15,16.287L14.327,0.733 "/>
		<polygon fill="#CDC9C5" points="15.811,1.019 29.271,10.799 15.16,16.068	"/>
		<path fill="#FFFFFF" d="M15.948,1.305l13.008,9.451l-13.637,5.092L15.948,1.305 M15.673,0.733L15,16.287l14.585-5.445 L15.673,0.733z"/>
		<polygon fill="#CDC9C5" points="0.229,12.34 14.742,16.372 5.37,28.164"/>
		<path fill="#FFFFFF" d="M0.458,12.561l14.025,3.895L5.426,27.852L0.458,12.561 M0,12.121l5.313,16.354L15,16.287L0,12.121"/>
		<polygon fill="#CDC9C5" points="15.258,16.372 29.771,12.34 24.63,28.164"/>
		<path fill="#FFFFFF" d="M29.542,12.561l-4.968,15.291l-9.058-11.396L29.542,12.561 M30,12.121l-15,4.166l9.687,12.188L30,12.121z"/>
		<polyline fill="#00ABBE" points="14.052,1.305 1.044,10.756 14.681,15.848 14.052,1.305"/>
		<path fill="#FFFFFF" d="M1.044,10.756L1.044,10.756l13.008-9.451l0.629,14.543L1.044,10.756 M14.327,0.733L0.415,10.842L15,16.287 L14.327,0.733"/>
    </g>
  </g>
</svg>
