<?xml version="1.0" encoding="utf-8"?>
<!DOCTYPE svg PUBLIC "-//W3C//DTD SVG 1.1//EN" "http://www.w3.org/Graphics/SVG/1.1/DTD/svg11.dtd">
<svg 
    version="1.1" xmlns="http://www.w3.org/2000/svg" xmlns:xlink="http://www.w3.org/1999/xlink"
    x="0px" y="0px" width="168px" height="46px"
    viewBox="0 0 120 32.5" enable-background="new 0 0 120 32.5" xml:space="preserve">
  <g id="rating">
    <rect fill="#ec6b10" width="10.607" height="10.607"
          x="54.697" y="19.697" transform="matrix(0.7071 0.7071 -0.7071 0.7071 35.2513 -35.1041)" />
    <rect fill="#ec6b10" width="120" height="25"/>
  </g>
  <g id="text">
    <text transform="matrix(1 0 0 1 20.2612 16.4258)" display="inline" fill="#FFFFFF" font-family="'Arial Unicode MS'" font-size="10">Develop In Place</text>
  </g>
</svg>

